     1                                  %macro ausgabe 1
     2                                  MOV DX,%1
     3                                  MOV AH,9
     4                                  int 21H
     5                                  %endmacro
     6                                  
     7                                  
     8                                  org 0x100
     9                                  bits 16
    10                                  
    11                                  section .code
    12                                  
    13 00000000 B099                    mov AL,99H
    14 00000002 88C3                    mov BL,AL
    15                                  
    16 00000004 88EB                    mov BL,CH
    17                                  
    18                                  ausgabe bat
    19 00000006 BA[0000]            <1> MOV DX,%1
    20 00000009 B409                <1> MOV AH,9
    21 0000000B CD21                <1> int 21H
    22 0000000D D0D3                    rcl BL,1
    23 0000000F 7203                    JC NOTNOT
    24 00000011 E84B00                  call NICHT
    25                                  NOTNOT:
    26                                  ausgabe loaded
    27 00000014 BA[1700]            <1> MOV DX,%1
    28 00000017 B409                <1> MOV AH,9
    29 00000019 CD21                <1> int 21H
    30                                  
    31                                  ausgabe bil
    32 0000001B BA[6300]            <1> MOV DX,%1
    33 0000001E B409                <1> MOV AH,9
    34 00000020 CD21                <1> int 21H
    35 00000022 C0D303                  rcl BL,3
    36 00000025 7203                    JC NOTNOT2
    37 00000027 E83500                  call NICHT
    38                                  NOTNOT2:
    39                                  ausgabe hoc
    40 0000002A BA[7900]            <1> MOV DX,%1
    41 0000002D B409                <1> MOV AH,9
    42 0000002F CD21                <1> int 21H
    43                                  
    44                                  ausgabe usb
    45 00000031 BA[3E00]            <1> MOV DX,%1
    46 00000034 B409                <1> MOV AH,9
    47 00000036 CD21                <1> int 21H
    48 00000038 D0D3                    rcl BL,1
    49 0000003A 7203                    JC NOTNOT3
    50 0000003C E82000                  call NICHT
    51                                  NOTNOT3:
    52                                  ausgabe bel
    53 0000003F BA[5B00]            <1> MOV DX,%1
    54 00000042 B409                <1> MOV AH,9
    55 00000044 CD21                <1> int 21H
    56                                  
    57                                  ausgabe cop
    58 00000046 BA[2000]            <1> MOV DX,%1
    59 00000049 B409                <1> MOV AH,9
    60 0000004B CD21                <1> int 21H
    61 0000004D C0D303                  rcl BL,3
    62 00000050 7203                    JC NOTNOT4
    63 00000052 E80A00                  call NICHT
    64                                  NOTNOT4:
    65                                  ausgabe akt
    66 00000055 BA[3700]            <1> MOV DX,%1
    67 00000058 B409                <1> MOV AH,9
    68 0000005A CD21                <1> int 21H
    69                                  
    70 0000005C E90900                  JMP ENDE
    71                                  
    72                                  NICHT:
    73                                  ausgabe nic
    74 0000005F BA[1000]            <1> MOV DX,%1
    75 00000062 B409                <1> MOV AH,9
    76 00000064 CD21                <1> int 21H
    77 00000066 F8                      CLC
    78 00000067 C3                      ret
    79                                  
    80                                  ENDE:
    81                                  
    82 00000068 B44C                    mov ah,4CH
    83 0000006A CD21                    int 21h
    84                                  
    85                                  
    86                                  section .data
    87                                  
    88 00000000 0A0D42617474657269-     bat db 10,13,"Batterie ist $"
    89 00000009 65206973742024     
    90 00000010 6E696368742024          nic db "nicht $"
    91 00000017 67656C6164656E2124      loaded db "geladen!$"
    92 00000020 0A0D44657220436F70-     cop db 10,13,"Der Coprozessor ist $"
    93 00000029 726F7A6573736F7220-
    94 00000032 6973742024         
    95 00000037 616B7469762124          akt db "aktiv!$"
    96 0000003E 0A0D44696520555342-     usb db 10,13,"Die USB-Schnittstelle ist $"
    97 00000047 2D5363686E69747473-
    98 00000050 74656C6C6520697374-
    99 00000059 2024               
   100 0000005B 62656C6567742124        bel db "belegt!$"
   101 00000063 0A0D4465722042696C-     bil db 10,13,"Der Bildschirm ist $"
   102 0000006C 6473636869726D2069-
   103 00000075 73742024           
   104 00000079 686F63686175666C6F-     hoc db "hochaufloesend!$"
   105 00000082 6573656E642124     
