     1                                  org 100H
     2                                  bits 16
     3                                  
     4                                  %macro ausgabe 1
     5                                  mov dl,[%1]
     6                                  add dl,30H
     7                                  mov ah,2
     8                                  int 21H
     9                                  %endmacro
    10                                  
    11                                  section .code
    12                                  
    13 00000000 B90A00                  mov cx,10
    14                                  
    15                                  schleife:
    16                                  
    17 00000003 B400                    mov ah,0H
    18 00000005 A0[0000]                mov al,[ihwe]
    19 00000008 B302                    mov bl,2
    20 0000000A F6F3                    div bl
    21 0000000C 80FC00                  cmp ah,0
    22 0000000F 750B                    jne weiter
    23                                  ausgabe ihwe
    24 00000011 8A16[0000]          <1> mov dl,[%1]
    25 00000015 80C230              <1> add dl,30H
    26 00000018 B402                <1> mov ah,2
    27 0000001A CD21                <1> int 21H
    28                                  weiter:
    29 0000001C FE06[0000]              inc byte[ihwe]
    30                                  
    31 00000020 E2E1                    loop schleife
    32                                  
    33 00000022 B44C                    mov ah,4ch
    34 00000024 CD21                    int 21H
    35                                  
    36                                  section .data
    37 00000000 00                      ihwe db 0
